{
  "project_info": {
    "project_number": "334226970957",
    "firebase_url": "https://authorizationdemo-ed387.firebaseio.com",
    "project_id": "authorizationdemo-ed387",
    "storage_bucket": "authorizationdemo-ed387.appspot.com"
  },
  "client": [
    {
      "client_info": {
        "mobilesdk_app_id": "1:334226970957:android:38f4ca706e548c2f",
        "android_client_info": {
          "package_name": "com.kshrd.kimsoerhrd.authorizationdemo"
        }
      },
      "oauth_client": [
        {
          "client_id": "334226970957-al118s27e7p8i0dh1rer7m4g9o83etnv.apps.googleusercontent.com",
          "client_type": 1,
          "android_info": {
            "package_name": "com.kshrd.kimsoerhrd.authorizationdemo",
            "certificate_hash": "25488b87a7fbdb841a3ea4b588dd03458fef3805"
          }
        },
        {
          "client_id": "334226970957-7je2mbmqg0ijuv6m0jeu201hn9i7c65n.apps.googleusercontent.com",
          "client_type": 3
        }
      ],
      "api_key": [
        {
          "current_key": "AIzaSyDPT6-NWqiZ6BkLRYD5C-bl4dvxLwOu918"
        }
      ],
      "services": {
        "analytics_service": {
          "status": 1
        },
        "appinvite_service": {
          "status": 2,
          "other_platform_oauth_client": [
            {
              "client_id": "334226970957-7je2mbmqg0ijuv6m0jeu201hn9i7c65n.apps.googleusercontent.com",
              "client_type": 3
            }
          ]
        },
        "ads_service": {
          "status": 2
        }
      }
    }
  ],
  "configuration_version": "1"
}